 0  500
 Parameter   ! first 3 elements per line are significant (if used as input)
        11      0.0000       -1.0000    
        12      0.0000       -1.0000    
        21     0.70906E-03    0.0000       0.70906E-03   0.13133E-01
       111     -3.8234        0.0000       -3.8234       0.47417E-01
       112     0.56667        0.0000       0.56667       0.63936E-01
       121    -0.55710E-02    0.0000      -0.55710E-02   0.12171E-01
       211     0.93317        0.0000       0.93317       0.45505E-01
       212      1.3668        0.0000        1.3668       0.47490E-01
       221     0.78233E-03    0.0000       0.78233E-03   0.25181E-02
       311      0.0000       -1.0000    
       312      0.0000       -1.0000    
       321      0.0000       -1.0000    
