Run	488	Pos1 46.25	Pos2 200.5
Run	489	Pos1 46.25	Pos2 200.5
Run	492	Pos1 46.25	Pos2 200.5
Run	493	Pos1 46.25	Pos2 200.5
Run	495	Pos1 109.299	Pos2 150.5
Run	496	Pos1 46.25	Pos2 200.5
Run	497	Pos1 56.255	Pos2 200.5
Run	498	Pos1 66.253	Pos2 200.5
Run	499	Pos1 76.2545	Pos2 200.5
Run	500	Pos1 86.2527	Pos2 200.5
Run	501	Pos1 96.2552	Pos2 200.5
Run	502	Pos1 106.252	Pos2 200.5
Run	504	Pos1 50.8536	Pos2 190.5
Run	505	Pos1 60.8544	Pos2 190.5
Run	506	Pos1 70.8521	Pos2 190.5
Run	507	Pos1 80.8552	Pos2 190.5
Run	508	Pos1 90.8529	Pos2 190.5
Run	509	Pos1 100.855	Pos2 190.5
Run	510	Pos1 110.854	Pos2 190.5
Run	512	Pos1 45.453	Pos2 180.5
Run	513	Pos1 55.4531	Pos2 180.5
Run	515	Pos1 75.454	Pos2 180.5
Run	516	Pos1 85.4527	Pos2 180.5
Run	517	Pos1 95.453	Pos2 180.5
Run	518	Pos1 105.455	Pos2 180.5
Run	520	Pos1 46.25	Pos2 200.5
Run	522	Pos1 46.25	Pos2 200.5
Run	523	Pos1 46.25	Pos2 200.5
Run	524	Pos1 99.25	Pos2 150.5
Run	525	Pos1 46.25	Pos2 200.5
Run	526	Pos1 40.05	Pos2 170.5
Run	527	Pos1 83.85	Pos2 140.5
Run	528	Pos1 30.05	Pos2 170.5
Run	529	Pos1 30.05	Pos2 170.5
Run	552	Pos1 73.25	Pos2 148.5
Run	553	Pos1 73.25	Pos2 148.5
Run	554	Pos1 80.2524	Pos2 148.5
Run	555	Pos1 87.2518	Pos2 148.5
Run	556	Pos1 94.2524	Pos2 148.5
Run	557	Pos1 101.251	Pos2 148.5
Run	558	Pos1 108.253	Pos2 148.5
Run	559	Pos1 115.252	Pos2 148.5
Run	560	Pos1 122.252	Pos2 148.5
Run	561	Pos1 129.252	Pos2 148.5
Run	562	Pos1 136.252	Pos2 148.5
Run	563	Pos1 64.0702	Pos2 131.494
Run	564	Pos1 71.0722	Pos2 131.5
Run	565	Pos1 78.072	Pos2 131.5
Run	566	Pos1 85.072	Pos2 131.5
Run	567	Pos1 92.0719	Pos2 131.5
Run	568	Pos1 99.0722	Pos2 131.5
Run	569	Pos1 106.072	Pos2 131.5
Run	570	Pos1 113.072	Pos2 131.5
Run	571	Pos1 120.072	Pos2 131.5
Run	572	Pos1 127.072	Pos2 131.5
Run	573	Pos1 134.072	Pos2 131.5
Run	574	Pos1 141.073	Pos2 131.5
Run	575	Pos1 148.072	Pos2 131.5
Run	577	Pos1 61.8925	Pos2 114.5
Run	578	Pos1 68.8924	Pos2 114.5
Run	579	Pos1 75.8918	Pos2 114.5
Run	580	Pos1 82.8919	Pos2 114.5
Run	581	Pos1 89.8924	Pos2 114.5
Run	582	Pos1 89.89	Pos2 114.5
Run	583	Pos1 96.8925	Pos2 114.5
Run	584	Pos1 103.892	Pos2 114.5
Run	585	Pos1 110.893	Pos2 114.5
Run	586	Pos1 117.892	Pos2 114.5
Run	587	Pos1 124.892	Pos2 114.5
Run	588	Pos1 131.892	Pos2 114.5
Run	589	Pos1 138.893	Pos2 114.5
Run	590	Pos1 145.892	Pos2 114.5
Run	591	Pos1 152.892	Pos2 114.5
Run	593	Pos1 52.712	Pos2 97.5
Run	594	Pos1 59.7119	Pos2 97.5
Run	595	Pos1 66.7126	Pos2 97.5
Run	596	Pos1 73.712	Pos2 97.5
Run	597	Pos1 80.7125	Pos2 97.5
Run	598	Pos1 87.7118	Pos2 97.5
Run	599	Pos1 94.7128	Pos2 97.5
Run	600	Pos1 101.712	Pos2 97.5
Run	601	Pos1 108.713	Pos2 97.5
Run	602	Pos1 115.712	Pos2 97.5
Run	603	Pos1 122.712	Pos2 97.5
Run	604	Pos1 129.712	Pos2 97.5
Run	605	Pos1 136.713	Pos2 97.5
Run	606	Pos1 143.713	Pos2 97.5
Run	607	Pos1 150.713	Pos2 97.5
Run	608	Pos1 157.711	Pos2 97.5
Run	609	Pos1 164.712	Pos2 97.5
Run	611	Pos1 49.4724	Pos2 80.5
Run	612	Pos1 56.4723	Pos2 80.5
Run	613	Pos1 63.4718	Pos2 80.5
Run	614	Pos1 70.4722	Pos2 80.5
Run	615	Pos1 77.4715	Pos2 80.5
Run	616	Pos1 84.4728	Pos2 80.5
Run	617	Pos1 91.472	Pos2 80.5
Run	618	Pos1 98.4719	Pos2 80.5
Run	619	Pos1 105.472	Pos2 80.5
Run	620	Pos1 112.472	Pos2 80.5
Run	621	Pos1 119.473	Pos2 80.5
Run	622	Pos1 126.472	Pos2 80.5
Run	623	Pos1 133.472	Pos2 80.5
Run	624	Pos1 140.473	Pos2 80.5
Run	625	Pos1 147.473	Pos2 80.5
Run	626	Pos1 154.472	Pos2 80.5
Run	627	Pos1 161.472	Pos2 80.5
Run	628	Pos1 168.472	Pos2 80.5
Run	630	Pos1 58.6526	Pos2 63.5
Run	631	Pos1 65.6522	Pos2 63.5
Run	632	Pos1 72.6525	Pos2 63.5
Run	633	Pos1 79.6521	Pos2 63.5
Run	634	Pos1 86.6519	Pos2 63.5
Run	635	Pos1 93.6522	Pos2 63.5
Run	636	Pos1 100.653	Pos2 63.5
Run	637	Pos1 107.652	Pos2 63.5
Run	638	Pos1 114.651	Pos2 63.5
Run	639	Pos1 121.652	Pos2 63.5
Run	640	Pos1 128.653	Pos2 63.5
Run	641	Pos1 135.652	Pos2 63.5
Run	642	Pos1 142.654	Pos2 63.5
Run	643	Pos1 149.652	Pos2 63.5
Run	644	Pos1 156.652	Pos2 63.5
Run	646	Pos1 67.8319	Pos2 46.5
Run	647	Pos1 74.8321	Pos2 46.5
Run	648	Pos1 81.8324	Pos2 46.5
Run	649	Pos1 88.8328	Pos2 46.5
Run	650	Pos1 95.8316	Pos2 46.5
Run	651	Pos1 102.833	Pos2 46.5
Run	652	Pos1 109.833	Pos2 46.5
Run	653	Pos1 116.834	Pos2 46.5
Run	654	Pos1 123.832	Pos2 46.5
Run	655	Pos1 130.834	Pos2 46.5
Run	656	Pos1 137.833	Pos2 46.5
Run	657	Pos1 144.833	Pos2 46.5
Run	658	Pos1 151.832	Pos2 46.5
Run	659	Pos1 70.0102	Pos2 29.4956
Run	660	Pos1 77.0122	Pos2 29.5
Run	661	Pos1 84.0118	Pos2 29.5
Run	662	Pos1 91.0118	Pos2 29.5
Run	663	Pos1 98.0114	Pos2 29.5
Run	664	Pos1 105.012	Pos2 29.5
Run	665	Pos1 112.012	Pos2 29.5
Run	666	Pos1 119.012	Pos2 29.5
Run	667	Pos1 126.012	Pos2 29.5
Run	668	Pos1 133.012	Pos2 29.5
Run	669	Pos1 140.012	Pos2 29.5
Run	670	Pos1 107	Pos2 86.0044
Run	671	Pos1 107	Pos2 86
Run	672	Pos1 107	Pos2 86
Run	673	Pos1 107	Pos2 86
Run	674	Pos1 107	Pos2 86
Run	675	Pos1 107	Pos2 86
Run	676	Pos1 107	Pos2 86
Run	677	Pos1 107	Pos2 86
Run	678	Pos1 107	Pos2 86
Run	679	Pos1 107	Pos2 86
Run	680	Pos1 107	Pos2 86
Run	681	Pos1 107	Pos2 86
Run	682	Pos1 107	Pos2 86
Run	683	Pos1 107	Pos2 86
Run	684	Pos1 107	Pos2 86
Run	685	Pos1 107	Pos2 86
Run	686	Pos1 107	Pos2 86
Run	687	Pos1 107	Pos2 86
Run	688	Pos1 107	Pos2 86
Run	689	Pos1 107	Pos2 86
Run	690	Pos1 107	Pos2 86
Run	691	Pos1 107	Pos2 86
Run	692	Pos1 107	Pos2 86
Run	693	Pos1 107	Pos2 86
Run	694	Pos1 107	Pos2 86
Run	874	Pos1 85	Pos2 140
Run	875	Pos1 17.5	Pos2 202.5
Run	876	Pos1 102.75	Pos2 177.5
Run	877	Pos1 29.65	Pos2 162.5
Run	884	Pos1 85	Pos2 140
Run	885	Pos1 93.0048	Pos2 140
Run	886	Pos1 101.005	Pos2 140
Run	887	Pos1 85	Pos2 140
Run	888	Pos1 101.004	Pos2 140
Run	889	Pos1 117.009	Pos2 140
Run	890	Pos1 133.004	Pos2 140
Run	891	Pos1 85.0001	Pos2 140
Run	892	Pos1 101.004	Pos2 140
Run	893	Pos1 117.006	Pos2 140
Run	894	Pos1 85	Pos2 140
Run	895	Pos1 101.003	Pos2 140
Run	896	Pos1 117.008	Pos2 140
Run	897	Pos1 133.005	Pos2 140
Run	898	Pos1 149.006	Pos2 140
Run	899	Pos1 85.0001	Pos2 140
Run	900	Pos1 101.003	Pos2 140
Run	901	Pos1 117.005	Pos2 140
Run	902	Pos1 133.008	Pos2 140
Run	903	Pos1 149.006	Pos2 140
Run	904	Pos1 85	Pos2 140
Run	905	Pos1 101.003	Pos2 140
Run	919	Pos1 85	Pos2 140
Run	920	Pos1 101.007	Pos2 140
Run	932	Pos1 51.25	Pos2 202.5
Run	933	Pos1 67.2531	Pos2 202.5
Run	934	Pos1 83.2535	Pos2 202.5
Run	935	Pos1 99.2559	Pos2 202.5
Run	936	Pos1 115.254	Pos2 202.5
Run	937	Pos1 46.9301	Pos2 194.497
Run	938	Pos1 62.9371	Pos2 194.5
Run	939	Pos1 46.93	Pos2 194.5
Run	940	Pos1 46.93	Pos2 194.5
Run	941	Pos1 46.93	Pos2 194.5
Run	942	Pos1 62.9336	Pos2 194.5
Run	943	Pos1 62.93	Pos2 194.5
Run	944	Pos1 62.93	Pos2 194.5
Run	945	Pos1 62.93	Pos2 194.5
Run	946	Pos1 78.9338	Pos2 194.5
Run	980	Pos1 78.93	Pos2 194.5
Run	981	Pos1 94.9367	Pos2 194.5
Run	982	Pos1 110.938	Pos2 194.5
Run	983	Pos1 42.6101	Pos2 186.498
Run	984	Pos1 78.93	Pos2 194.5
Run	985	Pos1 94.9329	Pos2 194.5
Run	986	Pos1 42.6101	Pos2 186.5
Run	987	Pos1 58.6137	Pos2 186.5
Run	988	Pos1 74.6136	Pos2 186.5
Run	989	Pos1 42.61	Pos2 186.5
Run	990	Pos1 58.6129	Pos2 186.5
Run	991	Pos1 74.6142	Pos2 186.5
Run	992	Pos1 90.614	Pos2 186.5
Run	993	Pos1 106.614	Pos2 186.5
Run	994	Pos1 122.615	Pos2 186.5
Run	995	Pos1 38.2902	Pos2 178.498
Run	997	Pos1 54.29	Pos2 178.5
Run	998	Pos1 54.29	Pos2 178.5
Run	999	Pos1 70.2937	Pos2 178.5
Run	1000	Pos1 86.2938	Pos2 178.5
Run	1001	Pos1 86.29	Pos2 178.5
Run	1002	Pos1 102.294	Pos2 178.5
Run	1003	Pos1 118.294	Pos2 178.5
Run	1004	Pos1 33.9701	Pos2 170.498
Run	1005	Pos1 49.9747	Pos2 170.5
Run	1006	Pos1 65.976	Pos2 170.5
Run	1007	Pos1 81.9743	Pos2 170.5
Run	1008	Pos1 97.9727	Pos2 170.5
Run	1009	Pos1 113.97	Pos2 170.5
Run	1010	Pos1 129.975	Pos2 170.5
Run	1011	Pos1 29.6505	Pos2 162.498
Run	1012	Pos1 45.6548	Pos2 162.5
Run	1013	Pos1 61.6548	Pos2 162.5
Run	1014	Pos1 77.6548	Pos2 162.5
Run	1022	Pos1 93.65	Pos2 162.5
Run	1023	Pos1 109.655	Pos2 162.5
Run	1024	Pos1 125.655	Pos2 162.5
Run	1025	Pos1 25.3302	Pos2 154.499
Run	1026	Pos1 41.3357	Pos2 154.5
Run	1027	Pos1 57.3345	Pos2 154.5
Run	1028	Pos1 57.33	Pos2 154.5
Run	1029	Pos1 73.3336	Pos2 154.5
Run	1030	Pos1 89.3345	Pos2 154.5
Run	1031	Pos1 105.338	Pos2 154.5
Run	1032	Pos1 121.338	Pos2 154.5
Run	1033	Pos1 137.333	Pos2 154.5
Run	1034	Pos1 21.0102	Pos2 146.497
Run	1035	Pos1 37.0152	Pos2 146.5
Run	1036	Pos1 37.01	Pos2 146.5
Run	1037	Pos1 53.0138	Pos2 146.5
Run	1038	Pos1 69.0161	Pos2 146.5
Run	1039	Pos1 85.015	Pos2 146.5
Run	1040	Pos1 101.014	Pos2 146.5
Run	1041	Pos1 117.018	Pos2 146.5
Run	1042	Pos1 133.016	Pos2 146.5
Run	1044	Pos1 34.3158	Pos2 138.5
Run	1045	Pos1 0	Pos2 0
Run	1046	Pos1 0	Pos2 0
Run	1047	Pos1 0	Pos2 0
Run	1048	Pos1 0	Pos2 0
Run	1049	Pos1 0	Pos2 0
Run	1050	Pos1 0	Pos2 0
Run	1051	Pos1 0	Pos2 0
Run	1052	Pos1 0	Pos2 0
Run	1053	Pos1 0	Pos2 0
Run	1054	Pos1 0	Pos2 0
Run	1055	Pos1 0	Pos2 0
Run	1064	Pos1 0	Pos2 0
Run	1065	Pos1 0	Pos2 0
Run	1066	Pos1 0	Pos2 0
Run	1067	Pos1 38.63	Pos2 130.5
Run	1068	Pos1 54.6352	Pos2 130.5
Run	1069	Pos1 70.6343	Pos2 130.5
Run	1070	Pos1 86.634	Pos2 130.5
Run	1071	Pos1 102.635	Pos2 130.5
Run	1072	Pos1 118.634	Pos2 130.5
Run	1073	Pos1 134.635	Pos2 130.5
Run	1074	Pos1 26.9502	Pos2 122.497
Run	1075	Pos1 42.9557	Pos2 122.5
Run	1076	Pos1 58.9571	Pos2 122.5
Run	1078	Pos1 90.953	Pos2 122.5
Run	1079	Pos1 106.955	Pos2 122.5
Run	1080	Pos1 122.955	Pos2 122.5
Run	1081	Pos1 138.955	Pos2 122.5
Run	1082	Pos1 31.2702	Pos2 114.497
Run	1083	Pos1 47.2747	Pos2 114.5
Run	1084	Pos1 63.2761	Pos2 114.5
Run	1085	Pos1 79.273	Pos2 114.5
Run	1086	Pos1 95.2763	Pos2 114.5
Run	1087	Pos1 111.275	Pos2 114.5
Run	1088	Pos1 127.278	Pos2 114.5
Run	1089	Pos1 35.5901	Pos2 106.497
Run	1090	Pos1 51.5946	Pos2 106.5
Run	1091	Pos1 67.5937	Pos2 106.5
Run	1092	Pos1 83.5963	Pos2 106.5
Run	1093	Pos1 99.5993	Pos2 106.5
Run	1094	Pos1 115.596	Pos2 106.5
Run	1095	Pos1 131.595	Pos2 106.5
Run	1096	Pos1 39.9101	Pos2 98.4973
Run	1097	Pos1 55.9148	Pos2 98.5
Run	1098	Pos1 71.9156	Pos2 98.5001
Run	1099	Pos1 87.9175	Pos2 98.5
Run	1100	Pos1 103.915	Pos2 98.5
Run	1101	Pos1 119.917	Pos2 98.5
Run	1102	Pos1 44.2301	Pos2 90.4984
Run	1103	Pos1 60.2364	Pos2 90.4999
Run	1104	Pos1 76.2331	Pos2 90.5
Run	1105	Pos1 92.2372	Pos2 90.5001
Run	1106	Pos1 108.237	Pos2 90.5001
Run	1107	Pos1 124.234	Pos2 90.5
Run	1108	Pos1 48.5501	Pos2 82.4974
Run	1109	Pos1 64.5557	Pos2 82.4999
Run	1110	Pos1 80.5552	Pos2 82.5
Run	1111	Pos1 96.5534	Pos2 82.5
Run	1112	Pos1 112.56	Pos2 82.4999
Run	1114	Pos1 85	Pos2 140
Run	1115	Pos1 85	Pos2 140
Run	1116	Pos1 85	Pos2 140
Run	1117	Pos1 85	Pos2 140
Run	1118	Pos1 85	Pos2 140
Run	1139	Pos1 0	Pos2 0
Run	1140	Pos1 202.86	Pos2 138.5
Run	1141	Pos1 202.86	Pos2 138.5
Run	1142	Pos1 202.86	Pos2 178.5
Run	1143	Pos1 202.86	Pos2 170.5
Run	1144	Pos1 202.86	Pos2 178.5
Run	1145	Pos1 202.86	Pos2 178.5
Run	1146	Pos1 146.31	Pos2 138.5
Run	1147	Pos1 42.61	Pos2 186.5
Run	1148	Pos1 51.25	Pos2 202.5
Run	1149	Pos1 90.6099	Pos2 186.5
Run	1150	Pos1 74.61	Pos2 186.5
Run	1151	Pos1 85	Pos2 145
Run	1152	Pos1 101.003	Pos2 145
Run	1153	Pos1 117.004	Pos2 145
Run	1228	Pos1 51.25	Pos2 202.5
Run	1229	Pos1 51.25	Pos2 202.5
Run	1230	Pos1 67.2533	Pos2 202.5
Run	1231	Pos1 83.2563	Pos2 202.5
Run	1232	Pos1 99.2566	Pos2 202.5
Run	1233	Pos1 115.256	Pos2 202.5
Run	1234	Pos1 46.9301	Pos2 194.498
Run	1235	Pos1 62.9339	Pos2 194.5
Run	1236	Pos1 78.9352	Pos2 194.5
Run	1237	Pos1 94.9363	Pos2 194.5
Run	1238	Pos1 110.934	Pos2 194.5
Run	1239	Pos1 42.6101	Pos2 186.497
Run	1240	Pos1 58.6133	Pos2 186.5
Run	1241	Pos1 74.6145	Pos2 186.5
Run	1242	Pos1 90.6127	Pos2 186.5
Run	1243	Pos1 106.615	Pos2 186.5
Run	1244	Pos1 122.614	Pos2 186.5
Run	1245	Pos1 38.2901	Pos2 178.498
Run	1246	Pos1 54.2944	Pos2 178.5
Run	1247	Pos1 70.2949	Pos2 178.5
Run	1248	Pos1 86.2953	Pos2 178.5
Run	1249	Pos1 102.296	Pos2 178.5
Run	1250	Pos1 118.294	Pos2 178.5
Run	1251	Pos1 33.9705	Pos2 170.498
Run	1252	Pos1 49.9741	Pos2 170.5
Run	1253	Pos1 65.9746	Pos2 170.5
Run	1254	Pos1 81.9758	Pos2 170.5
Run	1255	Pos1 97.9736	Pos2 170.5
Run	1256	Pos1 113.974	Pos2 170.5
Run	1257	Pos1 129.974	Pos2 170.5
Run	1259	Pos1 45.6537	Pos2 162.5
Run	1261	Pos1 77.6547	Pos2 162.5
Run	1262	Pos1 93.6562	Pos2 162.5
Run	1263	Pos1 109.654	Pos2 162.5
Run	1264	Pos1 125.658	Pos2 162.5
Run	1265	Pos1 25.3303	Pos2 154.483
Run	1266	Pos1 41.3336	Pos2 154.5
Run	1267	Pos1 57.3336	Pos2 154.5
Run	1268	Pos1 73.3349	Pos2 154.5
Run	1269	Pos1 89.3356	Pos2 154.5
Run	1270	Pos1 105.335	Pos2 154.5
Run	1272	Pos1 137.335	Pos2 154.5
Run	1274	Pos1 37.0131	Pos2 146.5
Run	1276	Pos1 69.01	Pos2 146.5
Run	1277	Pos1 85.0146	Pos2 146.5
Run	1278	Pos1 101.014	Pos2 146.5
Run	1279	Pos1 117.015	Pos2 146.5
Run	1280	Pos1 133.015	Pos2 146.5
Run	1282	Pos1 34.314	Pos2 138.5
Run	1283	Pos1 50.3176	Pos2 138.5
Run	1284	Pos1 66.31	Pos2 138.5
Run	1285	Pos1 82.3151	Pos2 138.5
Run	1286	Pos1 98.317	Pos2 138.5
Run	1287	Pos1 114.315	Pos2 138.5
Run	1288	Pos1 130.314	Pos2 138.5
Run	1289	Pos1 146.313	Pos2 138.5
Run	1291	Pos1 38.6351	Pos2 130.5
Run	1292	Pos1 54.6366	Pos2 130.5
Run	1293	Pos1 70.6347	Pos2 130.5
Run	1294	Pos1 86.6324	Pos2 130.5
Run	1295	Pos1 102.634	Pos2 130.5
Run	1296	Pos1 118.632	Pos2 130.5
Run	1297	Pos1 134.635	Pos2 130.5
Run	1299	Pos1 42.9541	Pos2 122.5
Run	1300	Pos1 58.9544	Pos2 122.5
Run	1302	Pos1 90.9537	Pos2 122.5
Run	1303	Pos1 106.955	Pos2 122.5
Run	1304	Pos1 122.954	Pos2 122.5
Run	1305	Pos1 138.952	Pos2 122.5
Run	1306	Pos1 31.27	Pos2 114.497
Run	1307	Pos1 47.2759	Pos2 114.5
Run	1308	Pos1 63.2743	Pos2 114.5
Run	1309	Pos1 79.2749	Pos2 114.5
Run	1310	Pos1 95.2738	Pos2 114.5
Run	1311	Pos1 111.275	Pos2 114.5
Run	1312	Pos1 127.275	Pos2 114.5
Run	1313	Pos1 35.5901	Pos2 106.497
Run	1314	Pos1 51.5935	Pos2 106.5
Run	1315	Pos1 67.5926	Pos2 106.5
Run	1316	Pos1 83.5951	Pos2 106.5
Run	1317	Pos1 99.595	Pos2 106.5
Run	1318	Pos1 115.596	Pos2 106.5
Run	1319	Pos1 131.595	Pos2 106.5
Run	1320	Pos1 39.9103	Pos2 98.4972
Run	1321	Pos1 55.9133	Pos2 98.4999
Run	1322	Pos1 71.9129	Pos2 98.5001
Run	1323	Pos1 87.9162	Pos2 98.5
Run	1324	Pos1 103.914	Pos2 98.5
Run	1325	Pos1 119.916	Pos2 98.5
Run	1326	Pos1 44.2301	Pos2 90.4971
Run	1327	Pos1 60.2357	Pos2 90.4999
Run	1328	Pos1 76.2357	Pos2 90.5
Run	1329	Pos1 92.2346	Pos2 90.5
Run	1330	Pos1 108.235	Pos2 90.5
Run	1331	Pos1 124.235	Pos2 90.5
Run	1332	Pos1 48.5501	Pos2 82.4969
Run	1333	Pos1 64.5552	Pos2 82.4999
Run	1334	Pos1 80.5557	Pos2 82.5
Run	1335	Pos1 96.5551	Pos2 82.5
Run	1336	Pos1 112.556	Pos2 82.4999
Run	1337	Pos1 85.0001	Pos2 140.002
Run	1338	Pos1 85	Pos2 140
Run	1339	Pos1 85	Pos2 140
Run	1372	Pos1 51.25	Pos2 202.5
Run	1373	Pos1 51.25	Pos2 202.5
Run	1374	Pos1 70.2564	Pos2 202.5
Run	1376	Pos1 108.254	Pos2 202.5
Run	1377	Pos1 45.8501	Pos2 192.497
Run	1378	Pos1 64.8535	Pos2 192.5
Run	1379	Pos1 83.8535	Pos2 192.5
Run	1380	Pos1 102.855	Pos2 192.5
Run	1381	Pos1 121.853	Pos2 192.5
Run	1382	Pos1 40.4501	Pos2 182.497
Run	1383	Pos1 59.4537	Pos2 182.5
Run	1384	Pos1 78.4559	Pos2 182.5
Run	1385	Pos1 97.4539	Pos2 182.5
Run	1386	Pos1 116.453	Pos2 182.5
Run	1387	Pos1 35.05	Pos2 172.498
Run	1388	Pos1 54.0547	Pos2 172.5
Run	1389	Pos1 73.0545	Pos2 172.5
Run	1390	Pos1 92.0539	Pos2 172.5
Run	1392	Pos1 130.056	Pos2 172.5
Run	1393	Pos1 29.6503	Pos2 162.497
Run	1394	Pos1 48.6549	Pos2 162.5
Run	1395	Pos1 67.6569	Pos2 162.5
Run	1396	Pos1 86.654	Pos2 162.5
Run	1397	Pos1 105.654	Pos2 162.5
Run	1398	Pos1 124.655	Pos2 162.5
Run	1399	Pos1 24.2501	Pos2 152.497
Run	1400	Pos1 43.2551	Pos2 152.5
Run	1401	Pos1 62.2529	Pos2 152.5
Run	1402	Pos1 81.2549	Pos2 152.5
Run	1403	Pos1 100.254	Pos2 152.5
Run	1404	Pos1 119.255	Pos2 152.5
Run	1405	Pos1 138.254	Pos2 152.5
Run	1407	Pos1 37.856	Pos2 142.5
Run	1408	Pos1 56.8559	Pos2 142.5
Run	1409	Pos1 75.8546	Pos2 142.5
Run	1410	Pos1 94.8553	Pos2 142.5
Run	1411	Pos1 113.854	Pos2 142.5
Run	1412	Pos1 132.854	Pos2 142.5
Run	1414	Pos1 40.5546	Pos2 132.5
Run	1415	Pos1 59.5551	Pos2 132.5
Run	1416	Pos1 78.5555	Pos2 132.5
Run	1417	Pos1 97.55	Pos2 132.5
Run	1418	Pos1 116.555	Pos2 132.5
Run	1419	Pos1 135.554	Pos2 132.5
Run	1421	Pos1 45.9543	Pos2 122.5
Run	1422	Pos1 64.9556	Pos2 122.5
Run	1423	Pos1 83.9547	Pos2 122.5
Run	1424	Pos1 102.955	Pos2 122.5
Run	1425	Pos1 121.957	Pos2 122.5
Run	1426	Pos1 140.955	Pos2 122.5
Run	1428	Pos1 51.3561	Pos2 112.5
Run	1429	Pos1 70.3555	Pos2 112.5
Run	1430	Pos1 89.355	Pos2 112.5
Run	1431	Pos1 108.355	Pos2 112.5
Run	1432	Pos1 127.356	Pos2 112.5
Run	1433	Pos1 37.7502	Pos2 102.497
Run	1434	Pos1 56.7541	Pos2 102.5
Run	1435	Pos1 75.7545	Pos2 102.5
Run	1436	Pos1 94.7546	Pos2 102.5
Run	1437	Pos1 113.755	Pos2 102.5
Run	1438	Pos1 43.1503	Pos2 92.4976
Run	1439	Pos1 62.155	Pos2 92.4999
Run	1440	Pos1 81.1551	Pos2 92.5
Run	1441	Pos1 100.154	Pos2 92.5
Run	1442	Pos1 119.154	Pos2 92.5001
Run	1443	Pos1 48.5503	Pos2 82.4976
Run	1444	Pos1 67.5555	Pos2 82.4999
Run	1445	Pos1 86.5544	Pos2 82.5
Run	1446	Pos1 105.555	Pos2 82.5
Run	1447	Pos1 85	Pos2 140.003
Run	1464	Pos1 51.2501	Pos2 202.5
Run	1465	Pos1 70.2535	Pos2 202.5
Run	1466	Pos1 89.253	Pos2 202.5
Run	1467	Pos1 108.254	Pos2 202.5
Run	1468	Pos1 45.85	Pos2 192.497
Run	1469	Pos1 64.8548	Pos2 192.5
Run	1470	Pos1 83.8561	Pos2 192.5
Run	1471	Pos1 102.856	Pos2 192.5
Run	1472	Pos1 121.856	Pos2 192.5
Run	1473	Pos1 40.4501	Pos2 182.497
Run	1474	Pos1 59.4548	Pos2 182.5
Run	1475	Pos1 78.4558	Pos2 182.5
Run	1476	Pos1 97.4533	Pos2 182.5
Run	1477	Pos1 116.456	Pos2 182.5
Run	1478	Pos1 35.0501	Pos2 172.497
Run	1479	Pos1 54.0553	Pos2 172.5
Run	1480	Pos1 73.0561	Pos2 172.5
Run	1481	Pos1 92.0534	Pos2 172.5
Run	1482	Pos1 111.055	Pos2 172.5
Run	1483	Pos1 130.054	Pos2 172.5
Run	1484	Pos1 29.6503	Pos2 162.498
Run	1485	Pos1 48.6547	Pos2 162.5
Run	1486	Pos1 67.6558	Pos2 162.5
Run	1487	Pos1 86.6543	Pos2 162.5
Run	1488	Pos1 105.654	Pos2 162.5
Run	1489	Pos1 124.657	Pos2 162.5
Run	1490	Pos1 24.25	Pos2 152.498
Run	1491	Pos1 43.2545	Pos2 152.5
Run	1492	Pos1 62.2558	Pos2 152.5
Run	1493	Pos1 81.2537	Pos2 152.5
Run	1494	Pos1 100.254	Pos2 152.5
Run	1495	Pos1 119.254	Pos2 152.5
Run	1496	Pos1 138.253	Pos2 152.5
Run	1498	Pos1 37.8555	Pos2 142.5
Run	1499	Pos1 56.8569	Pos2 142.5
Run	1500	Pos1 75.8554	Pos2 142.5
Run	1501	Pos1 94.8563	Pos2 142.5
Run	1502	Pos1 113.854	Pos2 142.5
Run	1503	Pos1 132.855	Pos2 142.5
Run	1504	Pos1 21.5502	Pos2 132.484
Run	1505	Pos1 40.5554	Pos2 132.5
Run	1506	Pos1 59.5552	Pos2 132.5
Run	1507	Pos1 78.5543	Pos2 132.5
Run	1508	Pos1 97.5551	Pos2 132.5
Run	1509	Pos1 116.555	Pos2 132.5
Run	1510	Pos1 135.555	Pos2 132.5
Run	1512	Pos1 45.9554	Pos2 122.5
Run	1513	Pos1 64.9558	Pos2 122.5
Run	1515	Pos1 102.955	Pos2 122.5
Run	1516	Pos1 121.955	Pos2 122.5
Run	1517	Pos1 140.954	Pos2 122.5
Run	1519	Pos1 51.3559	Pos2 112.5
Run	1520	Pos1 70.3549	Pos2 112.5
Run	1521	Pos1 89.3547	Pos2 112.5
Run	1522	Pos1 108.354	Pos2 112.5
Run	1523	Pos1 127.355	Pos2 112.5
Run	1524	Pos1 37.7501	Pos2 102.496
Run	1525	Pos1 56.755	Pos2 102.5
Run	1526	Pos1 75.7548	Pos2 102.5
Run	1527	Pos1 94.7566	Pos2 102.5
Run	1528	Pos1 113.756	Pos2 102.5
Run	1529	Pos1 43.1502	Pos2 92.4969
Run	1530	Pos1 62.1571	Pos2 92.5
Run	1531	Pos1 81.1549	Pos2 92.5
Run	1532	Pos1 100.155	Pos2 92.4999
Run	1533	Pos1 119.155	Pos2 92.5
Run	1534	Pos1 48.5503	Pos2 82.498
Run	1535	Pos1 67.5534	Pos2 82.4999
Run	1536	Pos1 86.5557	Pos2 82.5
Run	1537	Pos1 105.555	Pos2 82.5
Run	1538	Pos1 85	Pos2 140.003
Run	1539	Pos1 85	Pos2 140
